lab5/.Xil/Vivado-9192-ECEB-4022-09/hw_ila_data_1/zip_work/waveform.vcd
$date
        2020-Feb-24 10:25:19
$end
$version
        Vivado v2018.3 (64-bit)
$end
$timescale
        1ps
$end
$scope module dut $end
$var reg 1 " ACK_bit $end
$var reg 1 # SCL $end
$var reg 1 $ SDA $end
$var reg 8 % led_OBUF [7:0] $end
$var reg 1 - TrigerEvent $end
$var reg 1 . FSM_Clk $end
$var reg 8 / CURR_STATE [7:0] $end
$var reg 8 7 MSB_BYTE [7:0] $end
$var reg 8 ? LSB_BYTE [7:0] $end
$var reg 16 G Final_Temp [15:0] $end
$var reg 1 W _TRIGGER $end
$var reg 1 X _WINDOW $end
$var reg 1 Y _GAP $end
$upscope $end
$enddefinitions $end
#0
$dumpvars
1"
1#
1$
b11000000 %
1-
1.
b0 /
b0 7
b0 ?
b0 G
0W
1X
0Y
$end
#1
0.
#2
1.
#3
0.
#4
1.
#5
0.
#6
1.
#7
0.
#8
1.
#9
0.
#10
1.
#11
0.
#12
1.
#13
0.
#14
1.
#15
0.
#16
1.
#17
0.
#18
1.
#19
0.
#20
1.
#21
0.
#22
1.
#23
0.
#24
1.
#25
0.
#26
1.
#27
0.
#28
1.
#29
0.
#30
1.
#31
0.
#32
1.
#33
0.
#34
1.
#35
0.
#36
1.
#37
0.
#38
1.
#39
0.
#40
1.
#41
0.
#42
1.
#43
0.
#44
1.
#45
0.
#46
1.
#47
0.
#48
1.
#49
0.
#50
1.
#51
0.
#52
1.
#53
0.
#54
1.
#55
0.
#56
1.
#57
0.
#58
1.
#59
0.
#60
1.
#61
0.
#62
1.
#63
0-
1W
#64
0.
#65
1.
b1 /
#66
0.
#67
0$
1.
b10 /
#68
0.
#69
0#
1.
b11 /
#70
0.
#71
1$
1.
b100 /
#72
0.
#73
1#
1.
b101 /
#74
0.
#75
1.
b110 /
#76
0.
#77
0#
1.
b111 /
#78
0.
#79
0$
1.
b1000 /
#80
0.
#81
1#
1.
b1001 /
#82
0.
#83
1.
b1010 /
#84
0.
#85
0#
1.
b1011 /
#86
0.
#87
1.
b1100 /
#88
0.
#89
1#
1.
b1101 /
#90
0.
#91
1.
b1110 /
#92
0.
#93
0#
1.
b1111 /
#94
0.
#95
1$
1.
b10000 /
#96
0.
#97
1#
1.
b10001 /
#98
0.
#99
1.
b10010 /
#100
0.
#101
0#
1.
b10011 /
#102
0.
#103
0$
1.
b10100 /
#104
0.
#105
1#
1.
b10101 /
#106
0.
#107
1.
b10110 /
#108
0.
#109
0#
1.
b10111 /
#110
0.
#111
1.
b11000 /
#112
0.
#113
1#
1.
b11001 /
#114
0.
#115
1.
b11010 /
#116
0.
#117
0#
1.
b11011 /
#118
0.
#119
1.
b11100 /
#120
0.
#121
1#
1.
b11101 /
#122
0.
#123
1.
b11110 /
#124
0.
#125
0#
1.
b11111 /
#126
0.
#127
1.
b100000 /
#128
0.
#129
1#
1.
b100001 /
#130
0.
#131
1.
b100010 /
#132
0.
#133
0#
1.
b100011 /
#134
0.
#135
1.
b100100 /
#136
0.
#137
1#
1.
b100101 /
#138
0.
#139
0"
b1000000 %
1.
b100110 /
#140
0.
#141
0#
1.
b101011 /
#142
1$
0.
#143
0$
1.
b101100 /
#144
0.
#145
1#
1.
b101101 /
#146
0.
#147
1.
b101110 /
#148
0.
#149
0#
1.
b101111 /
#150
0.
#151
1.
b110000 /
#152
0.
#153
1#
1.
b110001 /
#154
0.
#155
1.
b110010 /
#156
0.
#157
0#
1.
b110011 /
#158
0.
#159
1.
b110100 /
#160
0.
#161
1#
1.
b110101 /
#162
0.
#163
1.
b110110 /
#164
0.
#165
0#
1.
b110111 /
#166
0.
#167
1.
b111000 /
#168
0.
#169
1#
1.
b111001 /
#170
0.
#171
1.
b111010 /
#172
0.
#173
0#
1.
b111111 /
#174
0.
#175
1.
b1000000 /
#176
0.
#177
1#
1.
b1000001 /
#178
0.
#179
1.
b1000010 /
#180
0.
#181
0#
1.
b1000011 /
#182
0.
#183
1.
b1000100 /
#184
0.
#185
1#
1.
b1000101 /
#186
0.
#187
1.
b1000110 /
#188
0.
#189
0#
1.
b1000111 /
#190
0.
#191
1.
b1001000 /
#192
0.
#193
1#
1.
b1001001 /
#194
0.
#195
1.
b1001010 /
#196
0.
#197
0#
1.
b1001011 /
#198
0.
#199
1.
b1001100 /
#200
0.
#201
1#
1.
b1001101 /
#202
0.
#203
1.
b1001110 /
#204
0.
#205
0#
1.
b1001111 /
#206
0.
#207
1.
b1010000 /
#208
0.
#209
1#
1.
b1010001 /
#210
0.
#211
1.
b1010010 /
#212
0.
#213
0#
1.
b1010011 /
#214
1$
0.
#215
1.
b1010111 /
#216
0.
#217
1#
1.
b1 /
#218
0.
#219
0$
1.
b10 /
#220
0.
#221
0#
1.
b11 /
#222
0.
#223
1$
1.
b100 /
#224
0.
#225
1#
1.
b101 /
#226
0.
#227
1.
b110 /
#228
0.
#229
0#
1.
b111 /
#230
0.
#231
0$
1.
b1000 /
#232
0.
#233
1#
1.
b1001 /
#234
0.
#235
1.
b1010 /
#236
0.
#237
0#
1.
b1011 /
#238
0.
#239
1.
b1100 /
#240
0.
#241
1#
1.
b1101 /
#242
0.
#243
1.
b1110 /
#244
0.
#245
0#
1.
b1111 /
#246
0.
#247
1$
1.
b10000 /
#248
0.
#249
1#
1.
b10001 /
#250
0.
#251
1.
b10010 /
#252
0.
#253
0#
1.
b10011 /
#254
0.
#255
0$
1.
b10100 /
#256
0.
#257
1#
1.
b10101 /
#258
0.
#259
1.
b10110 /
#260
0.
#261
0#
1.
b10111 /
#262
0.
#263
1.
b11000 /
#264
0.
#265
1#
1.
b11001 /
#266
0.
#267
1.
b11010 /
#268
0.
#269
0#
1.
b11011 /
#270
0.
#271
1.
b11100 /
#272
0.
#273
1#
1.
b11101 /
#274
0.
#275
1.
b11110 /
#276
0.
#277
0#
1.
b11111 /
#278
0.
#279
1$
1.
b100000 /
#280
0.
#281
1#
1.
b100001 /
#282
0.
#283
1.
b100010 /
#284
0.
#285
0#
1.
b100011 /
#286
0.
#287
0$
1.
b100100 /
#288
0.
#289
1#
1.
b100101 /
#290
0.
#291
1.
b100110 /
#292
0.
#293
0#
1.
b1011000 /
#294
0.
#295
1.
b1011001 /
#296
0.
#297
1#
1.
b1011010 /
#298
0.
#299
1.
b1011011 /
#300
0.
#301
0#
1.
b1011100 /
#302
0.
#303
1.
b1011101 /
#304
0.
#305
1#
1.
b1011110 /
#306
0.
#307
1.
b1011111 /
#308
0.
#309
0#
1.
b1100000 /
#310
0.
#311
1.
b1100001 /
#312
0.
#313
1#
1.
b1100010 /
#314
0.
#315
1.
b1100011 /
#316
0.
#317
0#
1.
b1100100 /
#318
0.
#319
1.
b1100101 /
#320
0.
#321
1#
1.
b1100110 /
#322
0.
#323
1.
b1100111 /
#324
0.
#325
0#
1.
b1101000 /
#326
1$
0.
#327
1.
b1101001 /
#328
0.
#329
1#
1.
b1101010 /
#330
0.
#331
1.
b1101011 /
b1000 7
#332
0.
#333
0#
1.
b1101100 /
#334
0.
#335
1.
b1101101 /
#336
0.
#337
1#
1.
b1101110 /
#338
0.
#339
1.
b1101111 /
b1100 7
#340
0.
#341
0#
1.
b1110000 /
#342
0$
0.
#343
1.
b1110001 /
#344
0.
#345
1#
1.
b1110010 /
#346
0.
#347
1.
b1110011 /
#348
0.
#349
0#
1.
b1110100 /
#350
1$
0.
#351
1.
b1110101 /
#352
0.
#353
1#
1.
b1110110 /
#354
0.
#355
1.
b1110111 /
b1101 7
#356
0.
#357
0#
1.
b1111000 /
#358
0.
#359
0$
1.
b1111001 /
#360
0.
#361
1#
1.
b1111010 /
#362
0.
#363
1.
b1111011 /
#364
0.
#365
0#
1.
b1111100 /
#366
0.
#367
1.
b1111101 /
#368
0.
#369
1#
1.
b1111110 /
#370
0.
#371
1.
b1111111 /
#372
0.
#373
0#
1.
b10000000 /
#374
0.
#375
1.
b10000001 /
#376
0.
#377
1#
1.
b10000010 /
#378
0.
#379
1.
b10000011 /
#380
0.
#381
0#
1.
b10000100 /
#382
0.
#383
1.
b10000101 /
#384
0.
#385
1#
1.
b10000110 /
#386
0.
#387
1.
b10000111 /
#388
0.
#389
0#
1.
b10001000 /
#390
0.
#391
1.
b10001001 /
#392
0.
#393
1#
1.
b10001010 /
#394
0.
#395
1.
b10001011 /
#396
0.
#397
0#
1.
b10001100 /
#398
0.
#399
1.
b10001101 /
#400
0.
#401
1#
1.
b10001110 /
#402
0.
#403
1.
b10001111 /
#404
0.
#405
0#
1.
b10010000 /
#406
0.
#407
1.
b10010001 /
#408
0.
#409
1#
1.
b10010010 /
#410
0.
#411
1.
b10010011 /
#412
0.
#413
0#
1.
b10010100 /
#414
0.
#415
1.
b10010101 /
#416
0.
#417
1#
1.
b10010110 /
#418
0.
#419
1.
b10010111 /
#420
0.
#421
0#
1.
b10011000 /
#422
0.
#423
1.
b10011001 /
#424
0.
#425
1#
1.
b10011010 /
#426
0.
#427
1.
b10011011 /
#428
0.
#429
0#
1.
b10011100 /
#430
0.
#431
1"
1$
b11000000 %
1.
b10011101 /
#432
0.
#433
1#
1.
b10011110 /
#434
0.
#435
1.
b10011111 /
#436
0.
#437
0#
1.
b1 /
b110100000000 G
#438
0.
#439
1#
0$
1.
b10 /
b0 7
#440
0.
#441
0#
1.
b11 /
#442
0.
#443
1$
1.
b100 /
#444
0.
#445
1#
1.
b101 /
#446
0.
#447
1.
b110 /
#448
0.
#449
0#
1.
b111 /
#450
0.
#451
0$
1.
b1000 /
#452
0.
#453
1#
1.
b1001 /
#454
0.
#455
1.
b1010 /
#456
0.
#457
0#
1.
b1011 /
#458
0.
#459
1.
b1100 /
#460
0.
#461
1#
1.
b1101 /
#462
0.
#463
1.
b1110 /
#464
0.
#465
0#
1.
b1111 /
#466
0.
#467
1$
1.
b10000 /
#468
0.
#469
1#
1.
b10001 /
#470
0.
#471
1.
b10010 /
#472
0.
#473
0#
1.
b10011 /
#474
0.
#475
0$
1.
b10100 /
#476
0.
#477
1#
1.
b10101 /
#478
0.
#479
1.
b10110 /
#480
0.
#481
0#
1.
b10111 /
#482
0.
#483
1.
b11000 /
#484
0.
#485
1#
1.
b11001 /
#486
0.
#487
1.
b11010 /
#488
0.
#489
0#
1.
b11011 /
#490
0.
#491
1.
b11100 /
#492
0.
#493
1#
1.
b11101 /
#494
0.
#495
1.
b11110 /
#496
0.
#497
0#
1.
b11111 /
#498
0.
#499
1.
b100000 /
#500
0.
#501
1#
1.
b100001 /
#502
0.
#503
1.
b100010 /
#504
0.
#505
0#
1.
b100011 /
#506
0.
#507
1.
b100100 /
#508
1$
0.
#509
1#
1.
b100101 /
#510
0.
#511
1.
b100110 /
#512
0.
#513
0#
1.
b101011 /
#514
0.
#515
0$
1.
b101100 /
#516
0.
#517
1#
1.
b101101 /
#518
0.
#519
1.
b101110 /
#520
0.
#521
0#
1.
b101111 /
#522
0.
#523
1.
b110000 /
#524
0.
#525
1#
1.
b110001 /
#526
0.
#527
1.
b110010 /
#528
0.
#529
0#
1.
b110011 /
#530
0.
#531
1.
b110100 /
#532
0.
#533
1#
1.
b110101 /
#534
0.
#535
1.
b110110 /
#536
0.
#537
0#
1.
b110111 /
#538
0.
#539
1.
b111000 /
#540
0.
#541
1#
1.
b111001 /
#542
0.
#543
1.
b111010 /
#544
0.
#545
0#
1.
b111111 /
#546
0.
#547
1.
b1000000 /
#548
0.
#549
1#
1.
b1000001 /
#550
0.
#551
1.
b1000010 /
#552
0.
#553
0#
1.
b1000011 /
#554
0.
#555
1.
b1000100 /
#556
0.
#557
1#
1.
b1000101 /
#558
0.
#559
1.
b1000110 /
#560
0.
#561
0#
1.
b1000111 /
#562
0.
#563
1.
b1001000 /
#564
0.
#565
1#
1.
b1001001 /
#566
0.
#567
1.
b1001010 /
#568
0.
#569
0#
1.
b1001011 /
#570
0.
#571
1.
b1001100 /
#572
0.
#573
1#
1.
b1001101 /
#574
0.
#575
1.
b1001110 /
#576
0.
#577
0#
1.
b1001111 /
#578
0.
#579
1.
b1010000 /
#580
1$
0.
#581
1#
1.
b1010001 /
#582
0.
#583
1.
b1010010 /
#584
0.
#585
0#
1.
b1010011 /
#586
0.
#587
1.
b1010111 /
#588
0.
#589
1#
1.
b1 /
#590
0.
#591
0$
1.
b10 /
#592
0.
#593
0#
1.
b11 /
#594
0.
#595
1$
1.
b100 /
#596
0.
#597
1#
1.
b101 /
#598
0.
#599
1.
b110 /
#600
0.
#601
0#
1.
b111 /
#602
0.
#603
0$
1.
b1000 /
#604
0.
#605
1#
1.
b1001 /
#606
0.
#607
1.
b1010 /
#608
0.
#609
0#
1.
b1011 /
#610
0.
#611
1.
b1100 /
#612
0.
#613
1#
1.
b1101 /
#614
0.
#615
1.
b1110 /
#616
0.
#617
0#
1.
b1111 /
#618
0.
#619
1$
1.
b10000 /
#620
0.
#621
1#
1.
b10001 /
#622
0.
#623
1.
b10010 /
#624
0.
#625
0#
1.
b10011 /
#626
0.
#627
0$
1.
b10100 /
#628
0.
#629
1#
1.
b10101 /
#630
0.
#631
1.
b10110 /
#632
0.
#633
0#
1.
b10111 /
#634
0.
#635
1.
b11000 /
#636
0.
#637
1#
1.
b11001 /
#638
0.
#639
1.
b11010 /
#640
0.
#641
0#
1.
b11011 /
#642
0.
#643
1.
b11100 /
#644
0.
#645
1#
1.
b11101 /
#646
0.
#647
1.
b11110 /
#648
0.
#649
0#
1.
b11111 /
#650
0.
#651
1$
1.
b100000 /
#652
0.
#653
1#
1.
b100001 /
#654
0.
#655
1.
b100010 /
#656
0.
#657
0#
1.
b100011 /
#658
0.
#659
0$
1.
b100100 /
#660
0.
#661
1#
1.
b100101 /
#662
0.
#663
0"
b1000000 %
1.
b100110 /
#664
0.
#665
0#
1.
b1011000 /
#666
0.
#667
1.
b1011001 /
#668
0.
#669
1#
1.
b1011010 /
#670
0.
#671
1.
b1011011 /
#672
0.
#673
0#
1.
b1011100 /
#674
0.
#675
1.
b1011101 /
#676
0.
#677
1#
1.
b1011110 /
#678
0.
#679
1.
b1011111 /
#680
0.
#681
0#
1.
b1100000 /
#682
0.
#683
1.
b1100001 /
#684
0.
#685
1#
1.
b1100010 /
#686
0.
#687
1.
b1100011 /
#688
0.
#689
0#
1.
b1100100 /
#690
0.
#691
1.
b1100101 /
#692
0.
#693
1#
1.
b1100110 /
#694
0.
#695
1.
b1100111 /
#696
0.
#697
0#
1.
b1101000 /
#698
1$
0.
#699
1.
b1101001 /
#700
0.
#701
1#
1.
b1101010 /
#702
0.
#703
1.
b1101011 /
b1000 7
#704
0.
#705
0#
1.
b1101100 /
#706
0.
#707
1.
b1101101 /
#708
0.
#709
1#
1.
b1101110 /
#710
0.
#711
1.
b1101111 /
b1100 7
#712
0.
#713
0#
1.
b1110000 /
#714
0$
0.
#715
1.
b1110001 /
#716
0.
#717
1#
1.
b1110010 /
#718
0.
#719
1.
b1110011 /
#720
0.
#721
0#
1.
b1110100 /
#722
1$
0.
#723
1.
b1110101 /
#724
0.
#725
1#
1.
b1110110 /
#726
0.
#727
1.
b1110111 /
b1101 7
#728
0.
#729
0#
1.
b1111000 /
#730
0.
#731
0$
1.
b1111001 /
#732
0.
#733
1#
1.
b1111010 /
#734
0.
#735
1.
b1111011 /
#736
0.
#737
0#
1.
b1111100 /
#738
0.
#739
1.
b1111101 /
#740
0.
#741
1#
1.
b1111110 /
#742
0.
#743
1.
b1111111 /
#744
0.
#745
0#
1.
b10000000 /
#746
0.
#747
1.
b10000001 /
#748
0.
#749
1#
1.
b10000010 /
#750
0.
#751
1.
b10000011 /
#752
0.
#753
0#
1.
b10000100 /
#754
0.
#755
1.
b10000101 /
#756
0.
#757
1#
1.
b10000110 /
#758
0.
#759
1.
b10000111 /
#760
0.
#761
0#
1.
b10001000 /
#762
0.
#763
1.
b10001001 /
#764
0.
#765
1#
1.
b10001010 /
#766
0.
#767
1.
b10001011 /
#768
0.
#769
0#
1.
b10001100 /
#770
0.
#771
1.
b10001101 /
#772
0.
#773
1#
1.
b10001110 /
#774
0.
#775
1.
b10001111 /
#776
0.
#777
0#
1.
b10010000 /
#778
0.
#779
1.
b10010001 /
#780
0.
#781
1#
1.
b10010010 /
#782
0.
#783
1.
b10010011 /
#784
0.
#785
0#
1.
b10010100 /
#786
0.
#787
1.
b10010101 /
#788
0.
#789
1#
1.
b10010110 /
#790
0.
#791
1.
b10010111 /
#792
0.
#793
0#
1.
b10011000 /
#794
0.
#795
1.
b10011001 /
#796
0.
#797
1#
1.
b10011010 /
#798
0.
#799
1.
b10011011 /
#800
0.
#801
0#
1.
b10011100 /
#802
0.
#803
1"
1$
b11000000 %
1.
b10011101 /
#804
0.
#805
1#
1.
b10011110 /
#806
0.
#807
1.
b10011111 /
#808
0.
#809
0#
1.
b1 /
#810
0.
#811
1#
0$
1.
b10 /
b0 7
#812
0.
#813
0#
1.
b11 /
#814
0.
#815
1$
1.
b100 /
#816
0.
#817
1#
1.
b101 /
#818
0.
#819
1.
b110 /
#820
0.
#821
0#
1.
b111 /
#822
0.
#823
0$
1.
b1000 /
#824
0.
#825
1#
1.
b1001 /
#826
0.
#827
1.
b1010 /
#828
0.
#829
0#
1.
b1011 /
#830
0.
#831
1.
b1100 /
#832
0.
#833
1#
1.
b1101 /
#834
0.
#835
1.
b1110 /
#836
0.
#837
0#
1.
b1111 /
#838
0.
#839
1$
1.
b10000 /
#840
0.
#841
1#
1.
b10001 /
#842
0.
#843
1.
b10010 /
#844
0.
#845
0#
1.
b10011 /
#846
0.
#847
0$
1.
b10100 /
#848
0.
#849
1#
1.
b10101 /
#850
0.
#851
1.
b10110 /
#852
0.
#853
0#
1.
b10111 /
#854
0.
#855
1.
b11000 /
#856
0.
#857
1#
1.
b11001 /
#858
0.
#859
1.
b11010 /
#860
0.
#861
0#
1.
b11011 /
#862
0.
#863
1.
b11100 /
#864
0.
#865
1#
1.
b11101 /
#866
0.
#867
1.
b11110 /
#868
0.
#869
0#
1.
b11111 /
#870
0.
#871
1.
b100000 /
#872
0.
#873
1#
1.
b100001 /
#874
0.
#875
1.
b100010 /
#876
0.
#877
0#
1.
b100011 /
#878
0.
#879
1.
b100100 /
#880
1$
0.
#881
1#
1.
b100101 /
#882
0.
#883
1.
b100110 /
#884
0.
#885
0#
1.
b101011 /
#886
0.
#887
0$
1.
b101100 /
#888
0.
#889
1#
1.
b101101 /
#890
0.
#891
1.
b101110 /
#892
0.
#893
0#
1.
b101111 /
#894
0.
#895
1.
b110000 /
#896
0.
#897
1#
1.
b110001 /
#898
0.
#899
1.
b110010 /
#900
0.
#901
0#
1.
b110011 /
#902
0.
#903
1.
b110100 /
#904
0.
#905
1#
1.
b110101 /
#906
0.
#907
1.
b110110 /
#908
0.
#909
0#
1.
b110111 /
#910
0.
#911
1.
b111000 /
#912
0.
#913
1#
1.
b111001 /
#914
0.
#915
1.
b111010 /
#916
0.
#917
0#
1.
b111111 /
#918
0.
#919
1.
b1000000 /
#920
0.
#921
1#
1.
b1000001 /
#922
0.
#923
1.
b1000010 /
#924
0.
#925
0#
1.
b1000011 /
#926
0.
#927
1.
b1000100 /
#928
0.
#929
1#
1.
b1000101 /
#930
0.
#931
1.
b1000110 /
#932
0.
#933
0#
1.
b1000111 /
#934
0.
#935
1.
b1001000 /
#936
0.
#937
1#
1.
b1001001 /
#938
0.
#939
1.
b1001010 /
#940
0.
#941
0#
1.
b1001011 /
#942
0.
#943
1.
b1001100 /
#944
0.
#945
1#
1.
b1001101 /
#946
0.
#947
1.
b1001110 /
#948
0.
#949
0#
1.
b1001111 /
#950
0.
#951
1.
b1010000 /
#952
1$
0.
#953
1#
1.
b1010001 /
#954
0.
#955
1.
b1010010 /
#956
0.
#957
0#
1.
b1010011 /
#958
0.
#959
1.
b1010111 /
#960
0.
#961
1#
1.
b1 /
#962
0.
#963
0$
1.
b10 /
#964
0.
#965
0#
1.
b11 /
#966
0.
#967
1$
1.
b100 /
#968
0.
#969
1#
1.
b101 /
#970
0.
#971
1.
b110 /
#972
0.
#973
0#
1.
b111 /
#974
0.
#975
0$
1.
b1000 /
#976
0.
#977
1#
1.
b1001 /
#978
0.
#979
1.
b1010 /
#980
0.
#981
0#
1.
b1011 /
#982
0.
#983
1.
b1100 /
#984
0.
#985
1#
1.
b1101 /
#986
0.
#987
1.
b1110 /
#988
0.
#989
0#
1.
b1111 /
#990
0.
#991
1$
1.
b10000 /
#992
0.
#993
1#
1.
b10001 /
#994
0.
#995
1.
b10010 /
#996
0.
#997
0#
1.
b10011 /
#998
0.
#999
0$
1.
b10100 /
#1000
0.
#1001
1#
1.
b10101 /
#1002
0.
#1003
1.
b10110 /
#1004
0.
#1005
0#
1.
b10111 /
#1006
0.
#1007
1.
b11000 /
#1008
0.
#1009
1#
1.
b11001 /
#1010
0.
#1011
1.
b11010 /
#1012
0.
#1013
0#
1.
b11011 /
#1014
0.
#1015
1.
b11100 /
#1016
0.
#1017
1#
1.
b11101 /
#1018
0.
#1019
1.
b11110 /
#1020
0.
#1021
0#
1.
b11111 /
#1022
0.
#1023
1$
1.
b100000 /
